<?xml version="1.0" encoding="UTF-8"?>
<svg width="101px" height="18px" viewBox="0 0 101 18" version="1.1" xmlns="http://www.w3.org/2000/svg" xmlns:xlink="http://www.w3.org/1999/xlink">
    <!-- Generator: Sketch 48.1 (47250) - http://www.bohemiancoding.com/sketch -->
    <title>Brand_Quiz_Page</title>
    <desc>Created with Sketch.</desc>
    <defs></defs>
    <g id="ICONS" stroke="none" stroke-width="1" fill="none" fill-rule="evenodd">
        <g id="Brand_Quiz_Page" fill="#FFFFFF">
            <g id="Page-1">
                <polygon id="Fill-1" points="0 5 0 17 2.62737669 17 2.62737669 12.3220052 7.59587455 12.3220052 7.59587455 9.88133679 2.62737669 9.88133679 2.62737669 7.44066839 8 7.44066839 8 5"></polygon>
                <g id="Group-15" transform="translate(8.000000, 0.000000)">
                    <path d="M3.06239815,11.1073956 C3.06239815,11.6673035 3.15137963,12.180179 3.32934259,12.6449025 C3.50730556,13.109626 3.76276852,13.5127597 4.09573148,13.8543035 C4.42869444,14.1958472 4.82825,14.4618035 5.29325,14.6521721 C5.75825,14.8425408 6.27778704,14.9377251 6.85186111,14.9377251 C7.42593519,14.9377251 7.9460463,14.8425408 8.4110463,14.6521721 C8.87662037,14.4618035 9.2744537,14.1958472 9.60741667,13.8543035 C9.94037963,13.5127597 10.1964167,13.109626 10.3743796,12.6449025 C10.5529167,12.180179 10.6413241,11.6673035 10.6413241,11.1073956 C10.6413241,10.5586859 10.5529167,10.0486099 10.3743796,9.57828733 C10.1964167,9.10796475 9.94037963,8.70203157 9.60741667,8.36048779 C9.2744537,8.01894401 8.87662037,7.75298779 8.4110463,7.56205922 C7.9460463,7.37225046 7.42593519,7.27650622 6.85186111,7.27650622 C6.27778704,7.27650622 5.75825,7.37225046 5.29325,7.56205922 C4.82825,7.75298779 4.42869444,8.01894401 4.09573148,8.36048779 C3.76276852,8.70203157 3.50730556,9.10796475 3.32934259,9.57828733 C3.15137963,10.0486099 3.06239815,10.5586859 3.06239815,11.1073956 M0.271824074,11.1073956 C0.271824074,10.1555523 0.435435185,9.29273433 0.762657407,8.52006152 C1.08987963,7.74738871 1.54626852,7.089497 2.13182407,6.5458265 C2.7179537,6.0027159 3.41258333,5.58558456 4.21628704,5.29443249 C5.01999074,5.00328041 5.89832407,4.85714447 6.85186111,4.85714447 C7.80482407,4.85714447 8.68373148,5.00328041 9.48743519,5.29443249 C10.291713,5.58558456 10.9869167,6.0027159 11.5718981,6.5458265 C12.1574537,7.089497 12.6138426,7.74738871 12.9410648,8.52006152 C13.268287,9.29273433 13.4318981,10.1555523 13.4318981,11.1073956 C13.4318981,12.0592389 13.268287,12.9220569 12.9410648,13.6947297 C12.6138426,14.4674025 12.1574537,15.1252942 11.5718981,15.6684048 C10.9869167,16.2120753 10.291713,16.6292067 9.48743519,16.9203588 C8.68373148,17.2115108 7.80482407,17.3570869 6.85186111,17.3570869 C5.89832407,17.3570869 5.01999074,17.2115108 4.21628704,16.9203588 C3.41258333,16.6292067 2.7179537,16.2120753 2.13182407,15.6684048 C1.54626852,15.1252942 1.08987963,14.4674025 0.762657407,13.6947297 C0.435435185,12.9220569 0.271824074,12.0592389 0.271824074,11.1073956" id="Fill-2"></path>
                    <polygon id="Fill-4" points="15.3612463 5.15971866 18.048487 5.15971866 18.048487 14.6355988 23.0268574 14.6355988 23.0268574 17.0549606 15.3612463 17.0549606"></polygon>
                    <polygon id="Fill-6" points="24.6114741 5.15971866 27.2987148 5.15971866 27.2987148 14.6355988 32.2770852 14.6355988 32.2770852 17.0549606 24.6114741 17.0549606"></polygon>
                    <path d="M35.8939241,11.1073956 C35.8939241,11.6673035 35.9829056,12.180179 36.1614426,12.6449025 C36.3388315,13.109626 36.5948685,13.5127597 36.9278315,13.8543035 C37.2607944,14.1958472 37.6597759,14.4618035 38.1247759,14.6521721 C38.5897759,14.8425408 39.109887,14.9377251 39.6839611,14.9377251 C40.2580352,14.9377251 40.7775722,14.8425408 41.2425722,14.6521721 C41.7081463,14.4618035 42.1065537,14.1958472 42.4395167,13.8543035 C42.7724796,13.5127597 43.0285167,13.109626 43.2064796,12.6449025 C43.3844426,12.180179 43.4734241,11.6673035 43.4734241,11.1073956 C43.4734241,10.5586859 43.3844426,10.0486099 43.2064796,9.57828733 C43.0285167,9.10796475 42.7724796,8.70203157 42.4395167,8.36048779 C42.1065537,8.01894401 41.7081463,7.75298779 41.2425722,7.56205922 C40.7775722,7.37225046 40.2580352,7.27650622 39.6839611,7.27650622 C39.109887,7.27650622 38.5897759,7.37225046 38.1247759,7.56205922 C37.6597759,7.75298779 37.2607944,8.01894401 36.9278315,8.36048779 C36.5948685,8.70203157 36.3388315,9.10796475 36.1614426,9.57828733 C35.9829056,10.0486099 35.8939241,10.5586859 35.8939241,11.1073956 M33.1039241,11.1073956 C33.1039241,10.1555523 33.2675352,9.29273433 33.5941833,8.52006152 C33.9214056,7.74738871 34.3777944,7.089497 34.9639241,6.5458265 C35.5494796,6.0027159 36.2441093,5.58558456 37.048387,5.29443249 C37.8520907,5.00328041 38.7304241,4.85714447 39.6839611,4.85714447 C40.6369241,4.85714447 41.5152574,5.00328041 42.3189611,5.29443249 C43.1232389,5.58558456 43.8184426,6.0027159 44.4034241,6.5458265 C44.9895537,7.089497 45.4459426,7.74738871 45.7731648,8.52006152 C46.100387,9.29273433 46.2639981,10.1555523 46.2639981,11.1073956 C46.2639981,12.0592389 46.100387,12.9220569 45.7731648,13.6947297 C45.4459426,14.4674025 44.9895537,15.1252942 44.4034241,15.6684048 C43.8184426,16.2120753 43.1232389,16.6292067 42.3189611,16.9203588 C41.5152574,17.2115108 40.6369241,17.3570869 39.6839611,17.3570869 C38.7304241,17.3570869 37.8520907,17.2115108 37.048387,16.9203588 C36.2441093,16.6292067 35.5494796,16.2120753 34.9639241,15.6684048 C34.3777944,15.1252942 33.9214056,14.4674025 33.5941833,13.6947297 C33.2675352,12.9220569 33.1039241,12.0592389 33.1039241,11.1073956" id="Fill-8"></path>
                    <path d="M86.5117,10.200009 L88.3028111,10.200009 C88.5439222,10.200009 88.7764222,10.1776127 89.0008852,10.13282 C89.2247741,10.0880274 89.4251259,10.0129998 89.603663,9.90605737 C89.7810519,9.79967488 89.9245704,9.65409885 90.0342185,9.46932926 C90.1432926,9.28455968 90.1978296,9.05219793 90.1978296,8.77224401 C90.1978296,8.46989378 90.1260704,8.22577396 89.9825519,8.04100438 C89.8390333,7.85623479 89.6553296,7.71345829 89.4314407,7.61267488 C89.2069778,7.51189147 88.9578296,7.44750207 88.6817,7.41950668 C88.4067185,7.39151129 88.1420704,7.37751359 87.8894778,7.37751359 L86.5117,7.37751359 L86.5117,10.200009 Z M83.8238852,5.15971866 L88.3544778,5.15971866 C88.9865333,5.15971866 89.5835704,5.21626935 90.146163,5.32769101 C90.7087556,5.44023249 91.1995889,5.63340069 91.618663,5.90719562 C92.0383111,6.18211037 92.3707,6.55164954 92.6181259,7.01637304 C92.8644037,7.48109654 92.9884037,8.06620023 92.9884037,8.77224401 C92.9884037,9.46652972 92.8735889,10.0488339 92.6439593,10.5191565 C92.4137556,10.989479 92.0980148,11.3651772 91.696163,11.6451311 C91.2943111,11.925085 90.8178296,12.1238523 90.2667185,12.2414329 C89.7156074,12.3590136 89.1179963,12.4178039 88.4750333,12.4178039 L86.5117,12.4178039 L86.5117,17.0549606 L83.8238852,17.0549606 L83.8238852,5.15971866 Z" id="Fill-10"></path>
                    <g id="Group-14" transform="translate(46.500000, 0.000000)">
                        <path d="M31.9527907,5.42573088 L31.9527907,12.3674682 C31.9527907,12.7370074 31.9941241,13.0785512 31.8735685,13.3920995 C31.753013,13.7062078 31.6347537,13.9772032 31.4166056,14.2073253 C31.1984574,14.4368876 30.9648093,14.6160581 30.6668648,14.7448369 C30.3683463,14.8736157 30.0531796,14.9380051 29.6978278,14.9380051 C29.3413278,14.9380051 29.0181241,14.8736157 28.7138648,14.7448369 C28.4096056,14.6160581 28.1512722,14.4368876 27.9331241,14.2073253 C27.7144019,13.9772032 27.5467722,13.7062078 27.4262167,13.3920995 C27.3056611,13.0785512 27.2471056,12.7370074 27.2471056,12.3674682 L27.2786796,5.6704106 C27.2224204,5.01643825 27.0783278,4.41061797 26.8429574,3.85462949 C26.5318093,3.12227005 26.0989574,2.49853272 25.5444019,1.98397742 C24.9892722,1.46886221 24.3313833,1.07412719 23.569013,0.797532719 C22.8072167,0.522058065 21.9748093,0.383760829 21.0717907,0.383760829 C20.1687722,0.383760829 19.3352167,0.522058065 18.5739944,0.797532719 C17.8121981,1.07412719 17.1543093,1.46886221 16.5991796,1.98397742 C16.04405,2.49853272 15.6111981,3.12227005 15.3011981,3.85462949 C15.1266796,4.26504194 15.0038278,4.70288986 14.9274759,5.16761336 L14.8878648,5.29751198 L12.8384204,13.2644406 L12.8039759,13.2644406 L10.2711611,5.42573088 L7.77393889,5.42573088 L5.22447593,12.7045327 L5.19003148,12.7045327 L3.2433463,5.42573088 L0.315568519,5.42573088 L3.93223519,17.1837954 L6.24058704,17.1837954 L8.92840185,8.78517788 L8.96227222,8.78517788 L11.650087,17.1837954 L14.04455,17.1837954 L17.5337722,5.73535991 C17.5751056,5.45316636 17.6365315,5.14689677 17.73355,4.88933917 C17.9023278,4.44421244 18.144587,4.04331843 18.4603278,3.7191318 C18.7754944,3.39550507 19.1538093,3.13570783 19.5941241,2.9548576 C20.035013,2.77512719 20.5281426,2.67994286 21.0717907,2.67994286 C21.6148648,2.67994286 22.1085685,2.76840829 22.5488833,2.94869862 C22.9903463,3.12954885 23.368087,3.38038756 23.6838278,3.70401429 C23.9984204,4.02820092 24.2062352,4.4122977 24.3744389,4.85798433 C24.4416056,5.0343553 24.4898278,5.2202447 24.4898278,5.40949355 L24.4898278,12.4682516 C24.4898278,13.1737355 24.6344944,13.8237885 24.8520685,14.4172908 C25.0707907,15.0107931 25.4123648,15.5259083 25.8429204,15.9626364 C26.2734759,16.3993645 26.8194204,16.7414682 27.4623833,16.9872677 C28.1053463,17.2336272 28.8556611,17.3573668 29.7064389,17.3573668 C30.544587,17.3573668 31.2874389,17.2336272 31.9304019,16.9872677 C32.5733648,16.7414682 33.1118463,16.3993645 33.5424019,15.9626364 C33.9729574,15.5259083 34.2869759,15.0107931 34.5056981,14.4172908 C34.7232722,13.8237885 34.8231611,13.1737355 34.8231611,12.4682516 L34.8231611,5.42573088 L31.9527907,5.42573088 Z" id="Fill-12"></path>
                    </g>
                </g>
            </g>
        </g>
    </g>
</svg>